[
    {
        "name": "symfony/yaml",
        "version": "v3.3.8",
        "version_normalized": "3.3.8.0",
        "source": {
            "type": "git",
            "url": "https://github.com/symfony/yaml.git",
            "reference": "1d8c2a99c80862bdc3af94c1781bf70f86bccac0"
        },
        "dist": {
            "type": "zip",
            "url": "https://api.github.com/repos/symfony/yaml/zipball/1d8c2a99c80862bdc3af94c1781bf70f86bccac0",
            "reference": "1d8c2a99c80862bdc3af94c1781bf70f86bccac0",
            "shasum": ""
        },
        "require": {
            "php": "^5.5.9|>=7.0.8"
        },
        "require-dev": {
            "symfony/console": "~2.8|~3.0"
        },
        "suggest": {
            "symfony/console": "For validating YAML files using the lint command"
        },
        "time": "2017-07-29T21:54:42+00:00",
        "type": "library",
        "extra": {
            "branch-alias": {
                "dev-master": "3.3-dev"
            }
        },
        "installation-source": "dist",
        "autoload": {
            "psr-4": {
                "Symfony\\Component\\Yaml\\": ""
            },
            "exclude-from-classmap": [
                "/Tests/"
            ]
        },
        "notification-url": "https://packagist.org/downloads/",
        "license": [
            "MIT"
        ],
        "authors": [
            {
                "name": "Fabien Potencier",
                "email": "fabien@symfony.com"
            },
            {
                "name": "Symfony Community",
                "homepage": "https://symfony.com/contributors"
            }
        ],
        "description": "Symfony Yaml Component",
        "homepage": "https://symfony.com"
    },
    {
        "name": "sebastian/version",
        "version": "2.0.1",
        "version_normalized": "2.0.1.0",
        "source": {
            "type": "git",
            "url": "https://github.com/sebastianbergmann/version.git",
            "reference": "99732be0ddb3361e16ad77b68ba41efc8e979019"
        },
        "dist": {
            "type": "zip",
            "url": "https://api.github.com/repos/sebastianbergmann/version/zipball/99732be0ddb3361e16ad77b68ba41efc8e979019",
            "reference": "99732be0ddb3361e16ad77b68ba41efc8e979019",
            "shasum": ""
        },
        "require": {
            "php": ">=5.6"
        },
        "time": "2016-10-03T07:35:21+00:00",
        "type": "library",
        "extra": {
            "branch-alias": {
                "dev-master": "2.0.x-dev"
            }
        },
        "installation-source": "dist",
        "autoload": {
            "classmap": [
                "src/"
            ]
        },
        "notification-url": "https://packagist.org/downloads/",
        "license": [
            "BSD-3-Clause"
        ],
        "authors": [
            {
                "name": "Sebastian Bergmann",
                "email": "sebastian@phpunit.de",
                "role": "lead"
            }
        ],
        "description": "Library that helps with managing the version number of Git-hosted PHP projects",
        "homepage": "https://github.com/sebastianbergmann/version"
    },
    {
        "name": "sebastian/resource-operations",
        "version": "1.0.0",
        "version_normalized": "1.0.0.0",
        "source": {
            "type": "git",
            "url": "https://github.com/sebastianbergmann/resource-operations.git",
            "reference": "ce990bb21759f94aeafd30209e8cfcdfa8bc3f52"
        },
        "dist": {
            "type": "zip",
            "url": "https://api.github.com/repos/sebastianbergmann/resource-operations/zipball/ce990bb21759f94aeafd30209e8cfcdfa8bc3f52",
            "reference": "ce990bb21759f94aeafd30209e8cfcdfa8bc3f52",
            "shasum": ""
        },
        "require": {
            "php": ">=5.6.0"
        },
        "time": "2015-07-28T20:34:47+00:00",
        "type": "library",
        "extra": {
            "branch-alias": {
                "dev-master": "1.0.x-dev"
            }
        },
        "installation-source": "dist",
        "autoload": {
            "classmap": [
                "src/"
            ]
        },
        "notification-url": "https://packagist.org/downloads/",
        "license": [
            "BSD-3-Clause"
        ],
        "authors": [
            {
                "name": "Sebastian Bergmann",
                "email": "sebastian@phpunit.de"
            }
        ],
        "description": "Provides a list of PHP built-in functions that operate on resources",
        "homepage": "https://www.github.com/sebastianbergmann/resource-operations"
    },
    {
        "name": "sebastian/recursion-context",
        "version": "3.0.0",
        "version_normalized": "3.0.0.0",
        "source": {
            "type": "git",
            "url": "https://github.com/sebastianbergmann/recursion-context.git",
            "reference": "5b0cd723502bac3b006cbf3dbf7a1e3fcefe4fa8"
        },
        "dist": {
            "type": "zip",
            "url": "https://api.github.com/repos/sebastianbergmann/recursion-context/zipball/5b0cd723502bac3b006cbf3dbf7a1e3fcefe4fa8",
            "reference": "5b0cd723502bac3b006cbf3dbf7a1e3fcefe4fa8",
            "shasum": ""
        },
        "require": {
            "php": "^7.0"
        },
        "require-dev": {
            "phpunit/phpunit": "^6.0"
        },
        "time": "2017-03-03T06:23:57+00:00",
        "type": "library",
        "extra": {
            "branch-alias": {
                "dev-master": "3.0.x-dev"
            }
        },
        "installation-source": "dist",
        "autoload": {
            "classmap": [
                "src/"
            ]
        },
        "notification-url": "https://packagist.org/downloads/",
        "license": [
            "BSD-3-Clause"
        ],
        "authors": [
            {
                "name": "Jeff Welch",
                "email": "whatthejeff@gmail.com"
            },
            {
                "name": "Sebastian Bergmann",
                "email": "sebastian@phpunit.de"
            },
            {
                "name": "Adam Harvey",
                "email": "aharvey@php.net"
            }
        ],
        "description": "Provides functionality to recursively process PHP variables",
        "homepage": "http://www.github.com/sebastianbergmann/recursion-context"
    },
    {
        "name": "sebastian/object-reflector",
        "version": "1.1.1",
        "version_normalized": "1.1.1.0",
        "source": {
            "type": "git",
            "url": "https://github.com/sebastianbergmann/object-reflector.git",
            "reference": "773f97c67f28de00d397be301821b06708fca0be"
        },
        "dist": {
            "type": "zip",
            "url": "https://api.github.com/repos/sebastianbergmann/object-reflector/zipball/773f97c67f28de00d397be301821b06708fca0be",
            "reference": "773f97c67f28de00d397be301821b06708fca0be",
            "shasum": ""
        },
        "require": {
            "php": "^7.0"
        },
        "require-dev": {
            "phpunit/phpunit": "^6.0"
        },
        "time": "2017-03-29T09:07:27+00:00",
        "type": "library",
        "extra": {
            "branch-alias": {
                "dev-master": "1.1-dev"
            }
        },
        "installation-source": "dist",
        "autoload": {
            "classmap": [
                "src/"
            ]
        },
        "notification-url": "https://packagist.org/downloads/",
        "license": [
            "BSD-3-Clause"
        ],
        "authors": [
            {
                "name": "Sebastian Bergmann",
                "email": "sebastian@phpunit.de"
            }
        ],
        "description": "Allows reflection of object attributes, including inherited and non-public ones",
        "homepage": "https://github.com/sebastianbergmann/object-reflector/"
    },
    {
        "name": "sebastian/object-enumerator",
        "version": "3.0.3",
        "version_normalized": "3.0.3.0",
        "source": {
            "type": "git",
            "url": "https://github.com/sebastianbergmann/object-enumerator.git",
            "reference": "7cfd9e65d11ffb5af41198476395774d4c8a84c5"
        },
        "dist": {
            "type": "zip",
            "url": "https://api.github.com/repos/sebastianbergmann/object-enumerator/zipball/7cfd9e65d11ffb5af41198476395774d4c8a84c5",
            "reference": "7cfd9e65d11ffb5af41198476395774d4c8a84c5",
            "shasum": ""
        },
        "require": {
            "php": "^7.0",
            "sebastian/object-reflector": "^1.1.1",
            "sebastian/recursion-context": "^3.0"
        },
        "require-dev": {
            "phpunit/phpunit": "^6.0"
        },
        "time": "2017-08-03T12:35:26+00:00",
        "type": "library",
        "extra": {
            "branch-alias": {
                "dev-master": "3.0.x-dev"
            }
        },
        "installation-source": "dist",
        "autoload": {
            "classmap": [
                "src/"
            ]
        },
        "notification-url": "https://packagist.org/downloads/",
        "license": [
            "BSD-3-Clause"
        ],
        "authors": [
            {
                "name": "Sebastian Bergmann",
                "email": "sebastian@phpunit.de"
            }
        ],
        "description": "Traverses array structures and object graphs to enumerate all referenced objects",
        "homepage": "https://github.com/sebastianbergmann/object-enumerator/"
    },
    {
        "name": "sebastian/global-state",
        "version": "2.0.0",
        "version_normalized": "2.0.0.0",
        "source": {
            "type": "git",
            "url": "https://github.com/sebastianbergmann/global-state.git",
            "reference": "e8ba02eed7bbbb9e59e43dedd3dddeff4a56b0c4"
        },
        "dist": {
            "type": "zip",
            "url": "https://api.github.com/repos/sebastianbergmann/global-state/zipball/e8ba02eed7bbbb9e59e43dedd3dddeff4a56b0c4",
            "reference": "e8ba02eed7bbbb9e59e43dedd3dddeff4a56b0c4",
            "shasum": ""
        },
        "require": {
            "php": "^7.0"
        },
        "require-dev": {
            "phpunit/phpunit": "^6.0"
        },
        "suggest": {
            "ext-uopz": "*"
        },
        "time": "2017-04-27T15:39:26+00:00",
        "type": "library",
        "extra": {
            "branch-alias": {
                "dev-master": "2.0-dev"
            }
        },
        "installation-source": "dist",
        "autoload": {
            "classmap": [
                "src/"
            ]
        },
        "notification-url": "https://packagist.org/downloads/",
        "license": [
            "BSD-3-Clause"
        ],
        "authors": [
            {
                "name": "Sebastian Bergmann",
                "email": "sebastian@phpunit.de"
            }
        ],
        "description": "Snapshotting of global state",
        "homepage": "http://www.github.com/sebastianbergmann/global-state",
        "keywords": [
            "global state"
        ]
    },
    {
        "name": "sebastian/exporter",
        "version": "3.1.0",
        "version_normalized": "3.1.0.0",
        "source": {
            "type": "git",
            "url": "https://github.com/sebastianbergmann/exporter.git",
            "reference": "234199f4528de6d12aaa58b612e98f7d36adb937"
        },
        "dist": {
            "type": "zip",
            "url": "https://api.github.com/repos/sebastianbergmann/exporter/zipball/234199f4528de6d12aaa58b612e98f7d36adb937",
            "reference": "234199f4528de6d12aaa58b612e98f7d36adb937",
            "shasum": ""
        },
        "require": {
            "php": "^7.0",
            "sebastian/recursion-context": "^3.0"
        },
        "require-dev": {
            "ext-mbstring": "*",
            "phpunit/phpunit": "^6.0"
        },
        "time": "2017-04-03T13:19:02+00:00",
        "type": "library",
        "extra": {
            "branch-alias": {
                "dev-master": "3.1.x-dev"
            }
        },
        "installation-source": "dist",
        "autoload": {
            "classmap": [
                "src/"
            ]
        },
        "notification-url": "https://packagist.org/downloads/",
        "license": [
            "BSD-3-Clause"
        ],
        "authors": [
            {
                "name": "Jeff Welch",
                "email": "whatthejeff@gmail.com"
            },
            {
                "name": "Volker Dusch",
                "email": "github@wallbash.com"
            },
            {
                "name": "Bernhard Schussek",
                "email": "bschussek@2bepublished.at"
            },
            {
                "name": "Sebastian Bergmann",
                "email": "sebastian@phpunit.de"
            },
            {
                "name": "Adam Harvey",
                "email": "aharvey@php.net"
            }
        ],
        "description": "Provides the functionality to export PHP variables for visualization",
        "homepage": "http://www.github.com/sebastianbergmann/exporter",
        "keywords": [
            "export",
            "exporter"
        ]
    },
    {
        "name": "sebastian/environment",
        "version": "3.1.0",
        "version_normalized": "3.1.0.0",
        "source": {
            "type": "git",
            "url": "https://github.com/sebastianbergmann/environment.git",
            "reference": "cd0871b3975fb7fc44d11314fd1ee20925fce4f5"
        },
        "dist": {
            "type": "zip",
            "url": "https://api.github.com/repos/sebastianbergmann/environment/zipball/cd0871b3975fb7fc44d11314fd1ee20925fce4f5",
            "reference": "cd0871b3975fb7fc44d11314fd1ee20925fce4f5",
            "shasum": ""
        },
        "require": {
            "php": "^7.0"
        },
        "require-dev": {
            "phpunit/phpunit": "^6.1"
        },
        "time": "2017-07-01T08:51:00+00:00",
        "type": "library",
        "extra": {
            "branch-alias": {
                "dev-master": "3.1.x-dev"
            }
        },
        "installation-source": "dist",
        "autoload": {
            "classmap": [
                "src/"
            ]
        },
        "notification-url": "https://packagist.org/downloads/",
        "license": [
            "BSD-3-Clause"
        ],
        "authors": [
            {
                "name": "Sebastian Bergmann",
                "email": "sebastian@phpunit.de"
            }
        ],
        "description": "Provides functionality to handle HHVM/PHP environments",
        "homepage": "http://www.github.com/sebastianbergmann/environment",
        "keywords": [
            "Xdebug",
            "environment",
            "hhvm"
        ]
    },
    {
        "name": "sebastian/diff",
        "version": "2.0.1",
        "version_normalized": "2.0.1.0",
        "source": {
            "type": "git",
            "url": "https://github.com/sebastianbergmann/diff.git",
            "reference": "347c1d8b49c5c3ee30c7040ea6fc446790e6bddd"
        },
        "dist": {
            "type": "zip",
            "url": "https://api.github.com/repos/sebastianbergmann/diff/zipball/347c1d8b49c5c3ee30c7040ea6fc446790e6bddd",
            "reference": "347c1d8b49c5c3ee30c7040ea6fc446790e6bddd",
            "shasum": ""
        },
        "require": {
            "php": "^7.0"
        },
        "require-dev": {
            "phpunit/phpunit": "^6.2"
        },
        "time": "2017-08-03T08:09:46+00:00",
        "type": "library",
        "extra": {
            "branch-alias": {
                "dev-master": "2.0-dev"
            }
        },
        "installation-source": "dist",
        "autoload": {
            "classmap": [
                "src/"
            ]
        },
        "notification-url": "https://packagist.org/downloads/",
        "license": [
            "BSD-3-Clause"
        ],
        "authors": [
            {
                "name": "Kore Nordmann",
                "email": "mail@kore-nordmann.de"
            },
            {
                "name": "Sebastian Bergmann",
                "email": "sebastian@phpunit.de"
            }
        ],
        "description": "Diff implementation",
        "homepage": "https://github.com/sebastianbergmann/diff",
        "keywords": [
            "diff"
        ]
    },
    {
        "name": "sebastian/comparator",
        "version": "2.0.2",
        "version_normalized": "2.0.2.0",
        "source": {
            "type": "git",
            "url": "https://github.com/sebastianbergmann/comparator.git",
            "reference": "ae068fede81d06e7bb9bb46a367210a3d3e1fe6a"
        },
        "dist": {
            "type": "zip",
            "url": "https://api.github.com/repos/sebastianbergmann/comparator/zipball/ae068fede81d06e7bb9bb46a367210a3d3e1fe6a",
            "reference": "ae068fede81d06e7bb9bb46a367210a3d3e1fe6a",
            "shasum": ""
        },
        "require": {
            "php": "^7.0",
            "sebastian/diff": "^2.0",
            "sebastian/exporter": "^3.0"
        },
        "require-dev": {
            "phpunit/phpunit": "^6.0"
        },
        "time": "2017-08-03T07:14:59+00:00",
        "type": "library",
        "extra": {
            "branch-alias": {
                "dev-master": "2.0.x-dev"
            }
        },
        "installation-source": "dist",
        "autoload": {
            "classmap": [
                "src/"
            ]
        },
        "notification-url": "https://packagist.org/downloads/",
        "license": [
            "BSD-3-Clause"
        ],
        "authors": [
            {
                "name": "Jeff Welch",
                "email": "whatthejeff@gmail.com"
            },
            {
                "name": "Volker Dusch",
                "email": "github@wallbash.com"
            },
            {
                "name": "Bernhard Schussek",
                "email": "bschussek@2bepublished.at"
            },
            {
                "name": "Sebastian Bergmann",
                "email": "sebastian@phpunit.de"
            }
        ],
        "description": "Provides the functionality to compare PHP values for equality",
        "homepage": "http://www.github.com/sebastianbergmann/comparator",
        "keywords": [
            "comparator",
            "compare",
            "equality"
        ]
    },
    {
        "name": "doctrine/instantiator",
        "version": "1.1.0",
        "version_normalized": "1.1.0.0",
        "source": {
            "type": "git",
            "url": "https://github.com/doctrine/instantiator.git",
            "reference": "185b8868aa9bf7159f5f953ed5afb2d7fcdc3bda"
        },
        "dist": {
            "type": "zip",
            "url": "https://api.github.com/repos/doctrine/instantiator/zipball/185b8868aa9bf7159f5f953ed5afb2d7fcdc3bda",
            "reference": "185b8868aa9bf7159f5f953ed5afb2d7fcdc3bda",
            "shasum": ""
        },
        "require": {
            "php": "^7.1"
        },
        "require-dev": {
            "athletic/athletic": "~0.1.8",
            "ext-pdo": "*",
            "ext-phar": "*",
            "phpunit/phpunit": "^6.2.3",
            "squizlabs/php_codesniffer": "^3.0.2"
        },
        "time": "2017-07-22T11:58:36+00:00",
        "type": "library",
        "extra": {
            "branch-alias": {
                "dev-master": "1.2.x-dev"
            }
        },
        "installation-source": "dist",
        "autoload": {
            "psr-4": {
                "Doctrine\\Instantiator\\": "src/Doctrine/Instantiator/"
            }
        },
        "notification-url": "https://packagist.org/downloads/",
        "license": [
            "MIT"
        ],
        "authors": [
            {
                "name": "Marco Pivetta",
                "email": "ocramius@gmail.com",
                "homepage": "http://ocramius.github.com/"
            }
        ],
        "description": "A small, lightweight utility to instantiate objects in PHP without invoking their constructors",
        "homepage": "https://github.com/doctrine/instantiator",
        "keywords": [
            "constructor",
            "instantiate"
        ]
    },
    {
        "name": "phpunit/php-text-template",
        "version": "1.2.1",
        "version_normalized": "1.2.1.0",
        "source": {
            "type": "git",
            "url": "https://github.com/sebastianbergmann/php-text-template.git",
            "reference": "31f8b717e51d9a2afca6c9f046f5d69fc27c8686"
        },
        "dist": {
            "type": "zip",
            "url": "https://api.github.com/repos/sebastianbergmann/php-text-template/zipball/31f8b717e51d9a2afca6c9f046f5d69fc27c8686",
            "reference": "31f8b717e51d9a2afca6c9f046f5d69fc27c8686",
            "shasum": ""
        },
        "require": {
            "php": ">=5.3.3"
        },
        "time": "2015-06-21T13:50:34+00:00",
        "type": "library",
        "installation-source": "dist",
        "autoload": {
            "classmap": [
                "src/"
            ]
        },
        "notification-url": "https://packagist.org/downloads/",
        "license": [
            "BSD-3-Clause"
        ],
        "authors": [
            {
                "name": "Sebastian Bergmann",
                "email": "sebastian@phpunit.de",
                "role": "lead"
            }
        ],
        "description": "Simple template engine.",
        "homepage": "https://github.com/sebastianbergmann/php-text-template/",
        "keywords": [
            "template"
        ]
    },
    {
        "name": "phpunit/phpunit-mock-objects",
        "version": "4.0.4",
        "version_normalized": "4.0.4.0",
        "source": {
            "type": "git",
            "url": "https://github.com/sebastianbergmann/phpunit-mock-objects.git",
            "reference": "2f789b59ab89669015ad984afa350c4ec577ade0"
        },
        "dist": {
            "type": "zip",
            "url": "https://api.github.com/repos/sebastianbergmann/phpunit-mock-objects/zipball/2f789b59ab89669015ad984afa350c4ec577ade0",
            "reference": "2f789b59ab89669015ad984afa350c4ec577ade0",
            "shasum": ""
        },
        "require": {
            "doctrine/instantiator": "^1.0.5",
            "php": "^7.0",
            "phpunit/php-text-template": "^1.2.1",
            "sebastian/exporter": "^3.0"
        },
        "conflict": {
            "phpunit/phpunit": "<6.0"
        },
        "require-dev": {
            "phpunit/phpunit": "^6.0"
        },
        "suggest": {
            "ext-soap": "*"
        },
        "time": "2017-08-03T14:08:16+00:00",
        "type": "library",
        "extra": {
            "branch-alias": {
                "dev-master": "4.0.x-dev"
            }
        },
        "installation-source": "dist",
        "autoload": {
            "classmap": [
                "src/"
            ]
        },
        "notification-url": "https://packagist.org/downloads/",
        "license": [
            "BSD-3-Clause"
        ],
        "authors": [
            {
                "name": "Sebastian Bergmann",
                "email": "sb@sebastian-bergmann.de",
                "role": "lead"
            }
        ],
        "description": "Mock Object library for PHPUnit",
        "homepage": "https://github.com/sebastianbergmann/phpunit-mock-objects/",
        "keywords": [
            "mock",
            "xunit"
        ]
    },
    {
        "name": "phpunit/php-timer",
        "version": "1.0.9",
        "version_normalized": "1.0.9.0",
        "source": {
            "type": "git",
            "url": "https://github.com/sebastianbergmann/php-timer.git",
            "reference": "3dcf38ca72b158baf0bc245e9184d3fdffa9c46f"
        },
        "dist": {
            "type": "zip",
            "url": "https://api.github.com/repos/sebastianbergmann/php-timer/zipball/3dcf38ca72b158baf0bc245e9184d3fdffa9c46f",
            "reference": "3dcf38ca72b158baf0bc245e9184d3fdffa9c46f",
            "shasum": ""
        },
        "require": {
            "php": "^5.3.3 || ^7.0"
        },
        "require-dev": {
            "phpunit/phpunit": "^4.8.35 || ^5.7 || ^6.0"
        },
        "time": "2017-02-26T11:10:40+00:00",
        "type": "library",
        "extra": {
            "branch-alias": {
                "dev-master": "1.0-dev"
            }
        },
        "installation-source": "dist",
        "autoload": {
            "classmap": [
                "src/"
            ]
        },
        "notification-url": "https://packagist.org/downloads/",
        "license": [
            "BSD-3-Clause"
        ],
        "authors": [
            {
                "name": "Sebastian Bergmann",
                "email": "sb@sebastian-bergmann.de",
                "role": "lead"
            }
        ],
        "description": "Utility class for timing",
        "homepage": "https://github.com/sebastianbergmann/php-timer/",
        "keywords": [
            "timer"
        ]
    },
    {
        "name": "phpunit/php-file-iterator",
        "version": "1.4.2",
        "version_normalized": "1.4.2.0",
        "source": {
            "type": "git",
            "url": "https://github.com/sebastianbergmann/php-file-iterator.git",
            "reference": "3cc8f69b3028d0f96a9078e6295d86e9bf019be5"
        },
        "dist": {
            "type": "zip",
            "url": "https://api.github.com/repos/sebastianbergmann/php-file-iterator/zipball/3cc8f69b3028d0f96a9078e6295d86e9bf019be5",
            "reference": "3cc8f69b3028d0f96a9078e6295d86e9bf019be5",
            "shasum": ""
        },
        "require": {
            "php": ">=5.3.3"
        },
        "time": "2016-10-03T07:40:28+00:00",
        "type": "library",
        "extra": {
            "branch-alias": {
                "dev-master": "1.4.x-dev"
            }
        },
        "installation-source": "dist",
        "autoload": {
            "classmap": [
                "src/"
            ]
        },
        "notification-url": "https://packagist.org/downloads/",
        "license": [
            "BSD-3-Clause"
        ],
        "authors": [
            {
                "name": "Sebastian Bergmann",
                "email": "sb@sebastian-bergmann.de",
                "role": "lead"
            }
        ],
        "description": "FilterIterator implementation that filters files based on a list of suffixes.",
        "homepage": "https://github.com/sebastianbergmann/php-file-iterator/",
        "keywords": [
            "filesystem",
            "iterator"
        ]
    },
    {
        "name": "theseer/tokenizer",
        "version": "1.1.0",
        "version_normalized": "1.1.0.0",
        "source": {
            "type": "git",
            "url": "https://github.com/theseer/tokenizer.git",
            "reference": "cb2f008f3f05af2893a87208fe6a6c4985483f8b"
        },
        "dist": {
            "type": "zip",
            "url": "https://api.github.com/repos/theseer/tokenizer/zipball/cb2f008f3f05af2893a87208fe6a6c4985483f8b",
            "reference": "cb2f008f3f05af2893a87208fe6a6c4985483f8b",
            "shasum": ""
        },
        "require": {
            "ext-dom": "*",
            "ext-tokenizer": "*",
            "ext-xmlwriter": "*",
            "php": "^7.0"
        },
        "time": "2017-04-07T12:08:54+00:00",
        "type": "library",
        "installation-source": "dist",
        "autoload": {
            "classmap": [
                "src/"
            ]
        },
        "notification-url": "https://packagist.org/downloads/",
        "license": [
            "BSD-3-Clause"
        ],
        "authors": [
            {
                "name": "Arne Blankerts",
                "email": "arne@blankerts.de",
                "role": "Developer"
            }
        ],
        "description": "A small library for converting tokenized PHP source code into XML and potentially other formats"
    },
    {
        "name": "sebastian/code-unit-reverse-lookup",
        "version": "1.0.1",
        "version_normalized": "1.0.1.0",
        "source": {
            "type": "git",
            "url": "https://github.com/sebastianbergmann/code-unit-reverse-lookup.git",
            "reference": "4419fcdb5eabb9caa61a27c7a1db532a6b55dd18"
        },
        "dist": {
            "type": "zip",
            "url": "https://api.github.com/repos/sebastianbergmann/code-unit-reverse-lookup/zipball/4419fcdb5eabb9caa61a27c7a1db532a6b55dd18",
            "reference": "4419fcdb5eabb9caa61a27c7a1db532a6b55dd18",
            "shasum": ""
        },
        "require": {
            "php": "^5.6 || ^7.0"
        },
        "require-dev": {
            "phpunit/phpunit": "^5.7 || ^6.0"
        },
        "time": "2017-03-04T06:30:41+00:00",
        "type": "library",
        "extra": {
            "branch-alias": {
                "dev-master": "1.0.x-dev"
            }
        },
        "installation-source": "dist",
        "autoload": {
            "classmap": [
                "src/"
            ]
        },
        "notification-url": "https://packagist.org/downloads/",
        "license": [
            "BSD-3-Clause"
        ],
        "authors": [
            {
                "name": "Sebastian Bergmann",
                "email": "sebastian@phpunit.de"
            }
        ],
        "description": "Looks up which function or method a line of code belongs to",
        "homepage": "https://github.com/sebastianbergmann/code-unit-reverse-lookup/"
    },
    {
        "name": "phpunit/php-token-stream",
        "version": "2.0.1",
        "version_normalized": "2.0.1.0",
        "source": {
            "type": "git",
            "url": "https://github.com/sebastianbergmann/php-token-stream.git",
            "reference": "9a02332089ac48e704c70f6cefed30c224e3c0b0"
        },
        "dist": {
            "type": "zip",
            "url": "https://api.github.com/repos/sebastianbergmann/php-token-stream/zipball/9a02332089ac48e704c70f6cefed30c224e3c0b0",
            "reference": "9a02332089ac48e704c70f6cefed30c224e3c0b0",
            "shasum": ""
        },
        "require": {
            "ext-tokenizer": "*",
            "php": "^7.0"
        },
        "require-dev": {
            "phpunit/phpunit": "^6.2.4"
        },
        "time": "2017-08-20T05:47:52+00:00",
        "type": "library",
        "extra": {
            "branch-alias": {
                "dev-master": "2.0-dev"
            }
        },
        "installation-source": "dist",
        "autoload": {
            "classmap": [
                "src/"
            ]
        },
        "notification-url": "https://packagist.org/downloads/",
        "license": [
            "BSD-3-Clause"
        ],
        "authors": [
            {
                "name": "Sebastian Bergmann",
                "email": "sebastian@phpunit.de"
            }
        ],
        "description": "Wrapper around PHP's tokenizer extension.",
        "homepage": "https://github.com/sebastianbergmann/php-token-stream/",
        "keywords": [
            "tokenizer"
        ]
    },
    {
        "name": "phpunit/php-code-coverage",
        "version": "5.2.2",
        "version_normalized": "5.2.2.0",
        "source": {
            "type": "git",
            "url": "https://github.com/sebastianbergmann/php-code-coverage.git",
            "reference": "8ed1902a57849e117b5651fc1a5c48110946c06b"
        },
        "dist": {
            "type": "zip",
            "url": "https://api.github.com/repos/sebastianbergmann/php-code-coverage/zipball/8ed1902a57849e117b5651fc1a5c48110946c06b",
            "reference": "8ed1902a57849e117b5651fc1a5c48110946c06b",
            "shasum": ""
        },
        "require": {
            "ext-dom": "*",
            "ext-xmlwriter": "*",
            "php": "^7.0",
            "phpunit/php-file-iterator": "^1.4.2",
            "phpunit/php-text-template": "^1.2.1",
            "phpunit/php-token-stream": "^1.4.11 || ^2.0",
            "sebastian/code-unit-reverse-lookup": "^1.0.1",
            "sebastian/environment": "^3.0",
            "sebastian/version": "^2.0.1",
            "theseer/tokenizer": "^1.1"
        },
        "require-dev": {
            "ext-xdebug": "^2.5",
            "phpunit/phpunit": "^6.0"
        },
        "suggest": {
            "ext-xdebug": "^2.5.5"
        },
        "time": "2017-08-03T12:40:43+00:00",
        "type": "library",
        "extra": {
            "branch-alias": {
                "dev-master": "5.2.x-dev"
            }
        },
        "installation-source": "dist",
        "autoload": {
            "classmap": [
                "src/"
            ]
        },
        "notification-url": "https://packagist.org/downloads/",
        "license": [
            "BSD-3-Clause"
        ],
        "authors": [
            {
                "name": "Sebastian Bergmann",
                "email": "sb@sebastian-bergmann.de",
                "role": "lead"
            }
        ],
        "description": "Library that provides collection, processing, and rendering functionality for PHP code coverage information.",
        "homepage": "https://github.com/sebastianbergmann/php-code-coverage",
        "keywords": [
            "coverage",
            "testing",
            "xunit"
        ]
    },
    {
        "name": "webmozart/assert",
        "version": "1.2.0",
        "version_normalized": "1.2.0.0",
        "source": {
            "type": "git",
            "url": "https://github.com/webmozart/assert.git",
            "reference": "2db61e59ff05fe5126d152bd0655c9ea113e550f"
        },
        "dist": {
            "type": "zip",
            "url": "https://api.github.com/repos/webmozart/assert/zipball/2db61e59ff05fe5126d152bd0655c9ea113e550f",
            "reference": "2db61e59ff05fe5126d152bd0655c9ea113e550f",
            "shasum": ""
        },
        "require": {
            "php": "^5.3.3 || ^7.0"
        },
        "require-dev": {
            "phpunit/phpunit": "^4.6",
            "sebastian/version": "^1.0.1"
        },
        "time": "2016-11-23T20:04:58+00:00",
        "type": "library",
        "extra": {
            "branch-alias": {
                "dev-master": "1.3-dev"
            }
        },
        "installation-source": "dist",
        "autoload": {
            "psr-4": {
                "Webmozart\\Assert\\": "src/"
            }
        },
        "notification-url": "https://packagist.org/downloads/",
        "license": [
            "MIT"
        ],
        "authors": [
            {
                "name": "Bernhard Schussek",
                "email": "bschussek@gmail.com"
            }
        ],
        "description": "Assertions to validate method input/output with nice error messages.",
        "keywords": [
            "assert",
            "check",
            "validate"
        ]
    },
    {
        "name": "phpdocumentor/reflection-common",
        "version": "1.0",
        "version_normalized": "1.0.0.0",
        "source": {
            "type": "git",
            "url": "https://github.com/phpDocumentor/ReflectionCommon.git",
            "reference": "144c307535e82c8fdcaacbcfc1d6d8eeb896687c"
        },
        "dist": {
            "type": "zip",
            "url": "https://api.github.com/repos/phpDocumentor/ReflectionCommon/zipball/144c307535e82c8fdcaacbcfc1d6d8eeb896687c",
            "reference": "144c307535e82c8fdcaacbcfc1d6d8eeb896687c",
            "shasum": ""
        },
        "require": {
            "php": ">=5.5"
        },
        "require-dev": {
            "phpunit/phpunit": "^4.6"
        },
        "time": "2015-12-27T11:43:31+00:00",
        "type": "library",
        "extra": {
            "branch-alias": {
                "dev-master": "1.0.x-dev"
            }
        },
        "installation-source": "dist",
        "autoload": {
            "psr-4": {
                "phpDocumentor\\Reflection\\": [
                    "src"
                ]
            }
        },
        "notification-url": "https://packagist.org/downloads/",
        "license": [
            "MIT"
        ],
        "authors": [
            {
                "name": "Jaap van Otterdijk",
                "email": "opensource@ijaap.nl"
            }
        ],
        "description": "Common reflection classes used by phpdocumentor to reflect the code structure",
        "homepage": "http://www.phpdoc.org",
        "keywords": [
            "FQSEN",
            "phpDocumentor",
            "phpdoc",
            "reflection",
            "static analysis"
        ]
    },
    {
        "name": "phpdocumentor/type-resolver",
        "version": "0.4.0",
        "version_normalized": "0.4.0.0",
        "source": {
            "type": "git",
            "url": "https://github.com/phpDocumentor/TypeResolver.git",
            "reference": "9c977708995954784726e25d0cd1dddf4e65b0f7"
        },
        "dist": {
            "type": "zip",
            "url": "https://api.github.com/repos/phpDocumentor/TypeResolver/zipball/9c977708995954784726e25d0cd1dddf4e65b0f7",
            "reference": "9c977708995954784726e25d0cd1dddf4e65b0f7",
            "shasum": ""
        },
        "require": {
            "php": "^5.5 || ^7.0",
            "phpdocumentor/reflection-common": "^1.0"
        },
        "require-dev": {
            "mockery/mockery": "^0.9.4",
            "phpunit/phpunit": "^5.2||^4.8.24"
        },
        "time": "2017-07-14T14:27:02+00:00",
        "type": "library",
        "extra": {
            "branch-alias": {
                "dev-master": "1.0.x-dev"
            }
        },
        "installation-source": "dist",
        "autoload": {
            "psr-4": {
                "phpDocumentor\\Reflection\\": [
                    "src/"
                ]
            }
        },
        "notification-url": "https://packagist.org/downloads/",
        "license": [
            "MIT"
        ],
        "authors": [
            {
                "name": "Mike van Riel",
                "email": "me@mikevanriel.com"
            }
        ]
    },
    {
        "name": "phpdocumentor/reflection-docblock",
        "version": "3.2.3",
        "version_normalized": "3.2.3.0",
        "source": {
            "type": "git",
            "url": "https://github.com/phpDocumentor/ReflectionDocBlock.git",
            "reference": "86e24012a3139b42a7b71155cfaa325389f00f1f"
        },
        "dist": {
            "type": "zip",
            "url": "https://api.github.com/repos/phpDocumentor/ReflectionDocBlock/zipball/86e24012a3139b42a7b71155cfaa325389f00f1f",
            "reference": "86e24012a3139b42a7b71155cfaa325389f00f1f",
            "shasum": ""
        },
        "require": {
            "php": "^7.0",
            "phpdocumentor/reflection-common": "^1.0@dev",
            "phpdocumentor/type-resolver": "^0.4.0",
            "webmozart/assert": "^1.0"
        },
        "require-dev": {
            "mockery/mockery": "^0.9.4",
            "phpunit/phpunit": "^4.4"
        },
        "time": "2017-08-29T19:37:41+00:00",
        "type": "library",
        "installation-source": "dist",
        "autoload": {
            "psr-4": {
                "phpDocumentor\\Reflection\\": [
                    "src/"
                ]
            }
        },
        "notification-url": "https://packagist.org/downloads/",
        "license": [
            "MIT"
        ],
        "authors": [
            {
                "name": "Mike van Riel",
                "email": "me@mikevanriel.com"
            }
        ],
        "description": "With this component, a library can provide support for annotations via DocBlocks or otherwise retrieve information that is embedded in a DocBlock."
    },
    {
        "name": "phpspec/prophecy",
        "version": "v1.7.0",
        "version_normalized": "1.7.0.0",
        "source": {
            "type": "git",
            "url": "https://github.com/phpspec/prophecy.git",
            "reference": "93d39f1f7f9326d746203c7c056f300f7f126073"
        },
        "dist": {
            "type": "zip",
            "url": "https://api.github.com/repos/phpspec/prophecy/zipball/93d39f1f7f9326d746203c7c056f300f7f126073",
            "reference": "93d39f1f7f9326d746203c7c056f300f7f126073",
            "shasum": ""
        },
        "require": {
            "doctrine/instantiator": "^1.0.2",
            "php": "^5.3|^7.0",
            "phpdocumentor/reflection-docblock": "^2.0|^3.0.2",
            "sebastian/comparator": "^1.1|^2.0",
            "sebastian/recursion-context": "^1.0|^2.0|^3.0"
        },
        "require-dev": {
            "phpspec/phpspec": "^2.5|^3.2",
            "phpunit/phpunit": "^4.8 || ^5.6.5"
        },
        "time": "2017-03-02T20:05:34+00:00",
        "type": "library",
        "extra": {
            "branch-alias": {
                "dev-master": "1.6.x-dev"
            }
        },
        "installation-source": "dist",
        "autoload": {
            "psr-0": {
                "Prophecy\\": "src/"
            }
        },
        "notification-url": "https://packagist.org/downloads/",
        "license": [
            "MIT"
        ],
        "authors": [
            {
                "name": "Konstantin Kudryashov",
                "email": "ever.zet@gmail.com",
                "homepage": "http://everzet.com"
            },
            {
                "name": "Marcello Duarte",
                "email": "marcello.duarte@gmail.com"
            }
        ],
        "description": "Highly opinionated mocking framework for PHP 5.3+",
        "homepage": "https://github.com/phpspec/prophecy",
        "keywords": [
            "Double",
            "Dummy",
            "fake",
            "mock",
            "spy",
            "stub"
        ]
    },
    {
        "name": "phar-io/version",
        "version": "1.0.1",
        "version_normalized": "1.0.1.0",
        "source": {
            "type": "git",
            "url": "https://github.com/phar-io/version.git",
            "reference": "a70c0ced4be299a63d32fa96d9281d03e94041df"
        },
        "dist": {
            "type": "zip",
            "url": "https://api.github.com/repos/phar-io/version/zipball/a70c0ced4be299a63d32fa96d9281d03e94041df",
            "reference": "a70c0ced4be299a63d32fa96d9281d03e94041df",
            "shasum": ""
        },
        "require": {
            "php": "^5.6 || ^7.0"
        },
        "time": "2017-03-05T17:38:23+00:00",
        "type": "library",
        "installation-source": "dist",
        "autoload": {
            "classmap": [
                "src/"
            ]
        },
        "notification-url": "https://packagist.org/downloads/",
        "license": [
            "BSD-3-Clause"
        ],
        "authors": [
            {
                "name": "Arne Blankerts",
                "email": "arne@blankerts.de",
                "role": "Developer"
            },
            {
                "name": "Sebastian Heuer",
                "email": "sebastian@phpeople.de",
                "role": "Developer"
            },
            {
                "name": "Sebastian Bergmann",
                "email": "sebastian@phpunit.de",
                "role": "Developer"
            }
        ],
        "description": "Library for handling version information and constraints"
    },
    {
        "name": "phar-io/manifest",
        "version": "1.0.1",
        "version_normalized": "1.0.1.0",
        "source": {
            "type": "git",
            "url": "https://github.com/phar-io/manifest.git",
            "reference": "2df402786ab5368a0169091f61a7c1e0eb6852d0"
        },
        "dist": {
            "type": "zip",
            "url": "https://api.github.com/repos/phar-io/manifest/zipball/2df402786ab5368a0169091f61a7c1e0eb6852d0",
            "reference": "2df402786ab5368a0169091f61a7c1e0eb6852d0",
            "shasum": ""
        },
        "require": {
            "ext-dom": "*",
            "ext-phar": "*",
            "phar-io/version": "^1.0.1",
            "php": "^5.6 || ^7.0"
        },
        "time": "2017-03-05T18:14:27+00:00",
        "type": "library",
        "extra": {
            "branch-alias": {
                "dev-master": "1.0.x-dev"
            }
        },
        "installation-source": "dist",
        "autoload": {
            "classmap": [
                "src/"
            ]
        },
        "notification-url": "https://packagist.org/downloads/",
        "license": [
            "BSD-3-Clause"
        ],
        "authors": [
            {
                "name": "Arne Blankerts",
                "email": "arne@blankerts.de",
                "role": "Developer"
            },
            {
                "name": "Sebastian Heuer",
                "email": "sebastian@phpeople.de",
                "role": "Developer"
            },
            {
                "name": "Sebastian Bergmann",
                "email": "sebastian@phpunit.de",
                "role": "Developer"
            }
        ],
        "description": "Component for reading phar.io manifest information from a PHP Archive (PHAR)"
    },
    {
        "name": "myclabs/deep-copy",
        "version": "1.6.1",
        "version_normalized": "1.6.1.0",
        "source": {
            "type": "git",
            "url": "https://github.com/myclabs/DeepCopy.git",
            "reference": "8e6e04167378abf1ddb4d3522d8755c5fd90d102"
        },
        "dist": {
            "type": "zip",
            "url": "https://api.github.com/repos/myclabs/DeepCopy/zipball/8e6e04167378abf1ddb4d3522d8755c5fd90d102",
            "reference": "8e6e04167378abf1ddb4d3522d8755c5fd90d102",
            "shasum": ""
        },
        "require": {
            "php": ">=5.4.0"
        },
        "require-dev": {
            "doctrine/collections": "1.*",
            "phpunit/phpunit": "~4.1"
        },
        "time": "2017-04-12T18:52:22+00:00",
        "type": "library",
        "installation-source": "dist",
        "autoload": {
            "psr-4": {
                "DeepCopy\\": "src/DeepCopy/"
            }
        },
        "notification-url": "https://packagist.org/downloads/",
        "license": [
            "MIT"
        ],
        "description": "Create deep copies (clones) of your objects",
        "homepage": "https://github.com/myclabs/DeepCopy",
        "keywords": [
            "clone",
            "copy",
            "duplicate",
            "object",
            "object graph"
        ]
    },
    {
        "name": "phpunit/phpunit",
        "version": "6.2.0",
        "version_normalized": "6.2.0.0",
        "source": {
            "type": "git",
            "url": "https://github.com/sebastianbergmann/phpunit.git",
            "reference": "23bcb03e5c6a8b8067f6c2b28f6cd84b2df321cc"
        },
        "dist": {
            "type": "zip",
            "url": "https://api.github.com/repos/sebastianbergmann/phpunit/zipball/23bcb03e5c6a8b8067f6c2b28f6cd84b2df321cc",
            "reference": "23bcb03e5c6a8b8067f6c2b28f6cd84b2df321cc",
            "shasum": ""
        },
        "require": {
            "ext-dom": "*",
            "ext-json": "*",
            "ext-libxml": "*",
            "ext-mbstring": "*",
            "ext-xml": "*",
            "myclabs/deep-copy": "^1.3",
            "phar-io/manifest": "^1.0.1",
            "phar-io/version": "^1.0",
            "php": "^7.0",
            "phpspec/prophecy": "^1.7",
            "phpunit/php-code-coverage": "^5.2",
            "phpunit/php-file-iterator": "^1.4",
            "phpunit/php-text-template": "^1.2",
            "phpunit/php-timer": "^1.0.6",
            "phpunit/phpunit-mock-objects": "^4.0",
            "sebastian/comparator": "^2.0",
            "sebastian/diff": "^1.4.3 || ^2.0",
            "sebastian/environment": "^3.0.2",
            "sebastian/exporter": "^3.1",
            "sebastian/global-state": "^1.1 || ^2.0",
            "sebastian/object-enumerator": "^3.0.2",
            "sebastian/resource-operations": "^1.0",
            "sebastian/version": "^2.0"
        },
        "conflict": {
            "phpdocumentor/reflection-docblock": "3.0.2",
            "phpunit/dbunit": "<3.0"
        },
        "require-dev": {
            "ext-pdo": "*"
        },
        "suggest": {
            "ext-xdebug": "*",
            "phpunit/php-invoker": "^1.1"
        },
        "time": "2017-06-02T08:02:48+00:00",
        "bin": [
            "phpunit"
        ],
        "type": "library",
        "extra": {
            "branch-alias": {
                "dev-master": "6.1.x-dev"
            }
        },
        "installation-source": "dist",
        "autoload": {
            "classmap": [
                "src/"
            ]
        },
        "notification-url": "https://packagist.org/downloads/",
        "license": [
            "BSD-3-Clause"
        ],
        "authors": [
            {
                "name": "Sebastian Bergmann",
                "email": "sebastian@phpunit.de",
                "role": "lead"
            }
        ],
        "description": "The PHP Unit Testing framework.",
        "homepage": "https://phpunit.de/",
        "keywords": [
            "phpunit",
            "testing",
            "xunit"
        ]
    },
    {
        "name": "phpunit/dbunit",
        "version": "3.0.0",
        "version_normalized": "3.0.0.0",
        "source": {
            "type": "git",
            "url": "https://github.com/sebastianbergmann/dbunit.git",
            "reference": "f2f8bec1d6ad7ad0bcdb47c1ed56d9d42d3e39ab"
        },
        "dist": {
            "type": "zip",
            "url": "https://api.github.com/repos/sebastianbergmann/dbunit/zipball/f2f8bec1d6ad7ad0bcdb47c1ed56d9d42d3e39ab",
            "reference": "f2f8bec1d6ad7ad0bcdb47c1ed56d9d42d3e39ab",
            "shasum": ""
        },
        "require": {
            "ext-pdo": "*",
            "ext-simplexml": "*",
            "php": "^7.0",
            "phpunit/phpunit": "^6.0",
            "symfony/yaml": "^3.0"
        },
        "time": "2017-02-03T08:50:36+00:00",
        "type": "library",
        "extra": {
            "branch-alias": {
                "dev-master": "3.0.x-dev"
            }
        },
        "installation-source": "dist",
        "autoload": {
            "classmap": [
                "src/"
            ]
        },
        "notification-url": "https://packagist.org/downloads/",
        "license": [
            "BSD-3-Clause"
        ],
        "authors": [
            {
                "name": "Sebastian Bergmann",
                "email": "sebastian@phpunit.de",
                "role": "lead"
            }
        ],
        "description": "PHPUnit extension for database interaction testing",
        "homepage": "https://github.com/sebastianbergmann/dbunit/",
        "keywords": [
            "database",
            "testing",
            "xunit"
        ]
    },
    {
        "name": "guzzlehttp/promises",
        "version": "v1.3.1",
        "version_normalized": "1.3.1.0",
        "source": {
            "type": "git",
            "url": "https://github.com/guzzle/promises.git",
            "reference": "a59da6cf61d80060647ff4d3eb2c03a2bc694646"
        },
        "dist": {
            "type": "zip",
            "url": "https://api.github.com/repos/guzzle/promises/zipball/a59da6cf61d80060647ff4d3eb2c03a2bc694646",
            "reference": "a59da6cf61d80060647ff4d3eb2c03a2bc694646",
            "shasum": ""
        },
        "require": {
            "php": ">=5.5.0"
        },
        "require-dev": {
            "phpunit/phpunit": "^4.0"
        },
        "time": "2016-12-20T10:07:11+00:00",
        "type": "library",
        "extra": {
            "branch-alias": {
                "dev-master": "1.4-dev"
            }
        },
        "installation-source": "dist",
        "autoload": {
            "psr-4": {
                "GuzzleHttp\\Promise\\": "src/"
            },
            "files": [
                "src/functions_include.php"
            ]
        },
        "notification-url": "https://packagist.org/downloads/",
        "license": [
            "MIT"
        ],
        "authors": [
            {
                "name": "Michael Dowling",
                "email": "mtdowling@gmail.com",
                "homepage": "https://github.com/mtdowling"
            }
        ],
        "description": "Guzzle promises library",
        "keywords": [
            "promise"
        ]
    },
    {
        "name": "psr/http-message",
        "version": "1.0.1",
        "version_normalized": "1.0.1.0",
        "source": {
            "type": "git",
            "url": "https://github.com/php-fig/http-message.git",
            "reference": "f6561bf28d520154e4b0ec72be95418abe6d9363"
        },
        "dist": {
            "type": "zip",
            "url": "https://api.github.com/repos/php-fig/http-message/zipball/f6561bf28d520154e4b0ec72be95418abe6d9363",
            "reference": "f6561bf28d520154e4b0ec72be95418abe6d9363",
            "shasum": ""
        },
        "require": {
            "php": ">=5.3.0"
        },
        "time": "2016-08-06T14:39:51+00:00",
        "type": "library",
        "extra": {
            "branch-alias": {
                "dev-master": "1.0.x-dev"
            }
        },
        "installation-source": "dist",
        "autoload": {
            "psr-4": {
                "Psr\\Http\\Message\\": "src/"
            }
        },
        "notification-url": "https://packagist.org/downloads/",
        "license": [
            "MIT"
        ],
        "authors": [
            {
                "name": "PHP-FIG",
                "homepage": "http://www.php-fig.org/"
            }
        ],
        "description": "Common interface for HTTP messages",
        "homepage": "https://github.com/php-fig/http-message",
        "keywords": [
            "http",
            "http-message",
            "psr",
            "psr-7",
            "request",
            "response"
        ]
    },
    {
        "name": "guzzlehttp/psr7",
        "version": "1.4.2",
        "version_normalized": "1.4.2.0",
        "source": {
            "type": "git",
            "url": "https://github.com/guzzle/psr7.git",
            "reference": "f5b8a8512e2b58b0071a7280e39f14f72e05d87c"
        },
        "dist": {
            "type": "zip",
            "url": "https://api.github.com/repos/guzzle/psr7/zipball/f5b8a8512e2b58b0071a7280e39f14f72e05d87c",
            "reference": "f5b8a8512e2b58b0071a7280e39f14f72e05d87c",
            "shasum": ""
        },
        "require": {
            "php": ">=5.4.0",
            "psr/http-message": "~1.0"
        },
        "provide": {
            "psr/http-message-implementation": "1.0"
        },
        "require-dev": {
            "phpunit/phpunit": "~4.0"
        },
        "time": "2017-03-20T17:10:46+00:00",
        "type": "library",
        "extra": {
            "branch-alias": {
                "dev-master": "1.4-dev"
            }
        },
        "installation-source": "dist",
        "autoload": {
            "psr-4": {
                "GuzzleHttp\\Psr7\\": "src/"
            },
            "files": [
                "src/functions_include.php"
            ]
        },
        "notification-url": "https://packagist.org/downloads/",
        "license": [
            "MIT"
        ],
        "authors": [
            {
                "name": "Michael Dowling",
                "email": "mtdowling@gmail.com",
                "homepage": "https://github.com/mtdowling"
            },
            {
                "name": "Tobias Schultze",
                "homepage": "https://github.com/Tobion"
            }
        ],
        "description": "PSR-7 message implementation that also provides common utility methods",
        "keywords": [
            "http",
            "message",
            "request",
            "response",
            "stream",
            "uri",
            "url"
        ]
    },
    {
        "name": "guzzlehttp/guzzle",
        "version": "6.3.0",
        "version_normalized": "6.3.0.0",
        "source": {
            "type": "git",
            "url": "https://github.com/guzzle/guzzle.git",
            "reference": "f4db5a78a5ea468d4831de7f0bf9d9415e348699"
        },
        "dist": {
            "type": "zip",
            "url": "https://api.github.com/repos/guzzle/guzzle/zipball/f4db5a78a5ea468d4831de7f0bf9d9415e348699",
            "reference": "f4db5a78a5ea468d4831de7f0bf9d9415e348699",
            "shasum": ""
        },
        "require": {
            "guzzlehttp/promises": "^1.0",
            "guzzlehttp/psr7": "^1.4",
            "php": ">=5.5"
        },
        "require-dev": {
            "ext-curl": "*",
            "phpunit/phpunit": "^4.0 || ^5.0",
            "psr/log": "^1.0"
        },
        "suggest": {
            "psr/log": "Required for using the Log middleware"
        },
        "time": "2017-06-22T18:50:49+00:00",
        "type": "library",
        "extra": {
            "branch-alias": {
                "dev-master": "6.2-dev"
            }
        },
        "installation-source": "dist",
        "autoload": {
            "files": [
                "src/functions_include.php"
            ],
            "psr-4": {
                "GuzzleHttp\\": "src/"
            }
        },
        "notification-url": "https://packagist.org/downloads/",
        "license": [
            "MIT"
        ],
        "authors": [
            {
                "name": "Michael Dowling",
                "email": "mtdowling@gmail.com",
                "homepage": "https://github.com/mtdowling"
            }
        ],
        "description": "Guzzle is a PHP HTTP client library",
        "homepage": "http://guzzlephp.org/",
        "keywords": [
            "client",
            "curl",
            "framework",
            "http",
            "http client",
            "rest",
            "web service"
        ]
    },
    {
        "name": "symfony/polyfill-mbstring",
        "version": "v1.5.0",
        "version_normalized": "1.5.0.0",
        "source": {
            "type": "git",
            "url": "https://github.com/symfony/polyfill-mbstring.git",
            "reference": "7c8fae0ac1d216eb54349e6a8baa57d515fe8803"
        },
        "dist": {
            "type": "zip",
            "url": "https://api.github.com/repos/symfony/polyfill-mbstring/zipball/7c8fae0ac1d216eb54349e6a8baa57d515fe8803",
            "reference": "7c8fae0ac1d216eb54349e6a8baa57d515fe8803",
            "shasum": ""
        },
        "require": {
            "php": ">=5.3.3"
        },
        "suggest": {
            "ext-mbstring": "For best performance"
        },
        "time": "2017-06-14T15:44:48+00:00",
        "type": "library",
        "extra": {
            "branch-alias": {
                "dev-master": "1.5-dev"
            }
        },
        "installation-source": "dist",
        "autoload": {
            "psr-4": {
                "Symfony\\Polyfill\\Mbstring\\": ""
            },
            "files": [
                "bootstrap.php"
            ]
        },
        "notification-url": "https://packagist.org/downloads/",
        "license": [
            "MIT"
        ],
        "authors": [
            {
                "name": "Nicolas Grekas",
                "email": "p@tchwork.com"
            },
            {
                "name": "Symfony Community",
                "homepage": "https://symfony.com/contributors"
            }
        ],
        "description": "Symfony polyfill for the Mbstring extension",
        "homepage": "https://symfony.com",
        "keywords": [
            "compatibility",
            "mbstring",
            "polyfill",
            "portable",
            "shim"
        ]
    },
    {
        "name": "symfony/dom-crawler",
        "version": "v3.3.8",
        "version_normalized": "3.3.8.0",
        "source": {
            "type": "git",
            "url": "https://github.com/symfony/dom-crawler.git",
            "reference": "d15dfaf71b65bf3affb80900470caf4451a8217e"
        },
        "dist": {
            "type": "zip",
            "url": "https://api.github.com/repos/symfony/dom-crawler/zipball/d15dfaf71b65bf3affb80900470caf4451a8217e",
            "reference": "d15dfaf71b65bf3affb80900470caf4451a8217e",
            "shasum": ""
        },
        "require": {
            "php": "^5.5.9|>=7.0.8",
            "symfony/polyfill-mbstring": "~1.0"
        },
        "require-dev": {
            "symfony/css-selector": "~2.8|~3.0"
        },
        "suggest": {
            "symfony/css-selector": ""
        },
        "time": "2017-08-15T13:31:09+00:00",
        "type": "library",
        "extra": {
            "branch-alias": {
                "dev-master": "3.3-dev"
            }
        },
        "installation-source": "dist",
        "autoload": {
            "psr-4": {
                "Symfony\\Component\\DomCrawler\\": ""
            },
            "exclude-from-classmap": [
                "/Tests/"
            ]
        },
        "notification-url": "https://packagist.org/downloads/",
        "license": [
            "MIT"
        ],
        "authors": [
            {
                "name": "Fabien Potencier",
                "email": "fabien@symfony.com"
            },
            {
                "name": "Symfony Community",
                "homepage": "https://symfony.com/contributors"
            }
        ],
        "description": "Symfony DomCrawler Component",
        "homepage": "https://symfony.com"
    },
    {
        "name": "symfony/css-selector",
        "version": "v3.3.8",
        "version_normalized": "3.3.8.0",
        "source": {
            "type": "git",
            "url": "https://github.com/symfony/css-selector.git",
            "reference": "c5f5263ed231f164c58368efbce959137c7d9488"
        },
        "dist": {
            "type": "zip",
            "url": "https://api.github.com/repos/symfony/css-selector/zipball/c5f5263ed231f164c58368efbce959137c7d9488",
            "reference": "c5f5263ed231f164c58368efbce959137c7d9488",
            "shasum": ""
        },
        "require": {
            "php": "^5.5.9|>=7.0.8"
        },
        "time": "2017-07-29T21:54:42+00:00",
        "type": "library",
        "extra": {
            "branch-alias": {
                "dev-master": "3.3-dev"
            }
        },
        "installation-source": "dist",
        "autoload": {
            "psr-4": {
                "Symfony\\Component\\CssSelector\\": ""
            },
            "exclude-from-classmap": [
                "/Tests/"
            ]
        },
        "notification-url": "https://packagist.org/downloads/",
        "license": [
            "MIT"
        ],
        "authors": [
            {
                "name": "Jean-François Simon",
                "email": "jeanfrancois.simon@sensiolabs.com"
            },
            {
                "name": "Fabien Potencier",
                "email": "fabien@symfony.com"
            },
            {
                "name": "Symfony Community",
                "homepage": "https://symfony.com/contributors"
            }
        ],
        "description": "Symfony CssSelector Component",
        "homepage": "https://symfony.com"
    },
    {
        "name": "symfony/browser-kit",
        "version": "v3.3.8",
        "version_normalized": "3.3.8.0",
        "source": {
            "type": "git",
            "url": "https://github.com/symfony/browser-kit.git",
            "reference": "aee7120b058c268363e606ff5fe8271da849a1b5"
        },
        "dist": {
            "type": "zip",
            "url": "https://api.github.com/repos/symfony/browser-kit/zipball/aee7120b058c268363e606ff5fe8271da849a1b5",
            "reference": "aee7120b058c268363e606ff5fe8271da849a1b5",
            "shasum": ""
        },
        "require": {
            "php": "^5.5.9|>=7.0.8",
            "symfony/dom-crawler": "~2.8|~3.0"
        },
        "require-dev": {
            "symfony/css-selector": "~2.8|~3.0",
            "symfony/process": "~2.8|~3.0"
        },
        "suggest": {
            "symfony/process": ""
        },
        "time": "2017-07-29T21:54:42+00:00",
        "type": "library",
        "extra": {
            "branch-alias": {
                "dev-master": "3.3-dev"
            }
        },
        "installation-source": "dist",
        "autoload": {
            "psr-4": {
                "Symfony\\Component\\BrowserKit\\": ""
            },
            "exclude-from-classmap": [
                "/Tests/"
            ]
        },
        "notification-url": "https://packagist.org/downloads/",
        "license": [
            "MIT"
        ],
        "authors": [
            {
                "name": "Fabien Potencier",
                "email": "fabien@symfony.com"
            },
            {
                "name": "Symfony Community",
                "homepage": "https://symfony.com/contributors"
            }
        ],
        "description": "Symfony BrowserKit Component",
        "homepage": "https://symfony.com"
    },
    {
        "name": "fabpot/goutte",
        "version": "v3.2.1",
        "version_normalized": "3.2.1.0",
        "source": {
            "type": "git",
            "url": "https://github.com/FriendsOfPHP/Goutte.git",
            "reference": "db5c28f4a010b4161d507d5304e28a7ebf211638"
        },
        "dist": {
            "type": "zip",
            "url": "https://api.github.com/repos/FriendsOfPHP/Goutte/zipball/db5c28f4a010b4161d507d5304e28a7ebf211638",
            "reference": "db5c28f4a010b4161d507d5304e28a7ebf211638",
            "shasum": ""
        },
        "require": {
            "guzzlehttp/guzzle": "^6.0",
            "php": ">=5.5.0",
            "symfony/browser-kit": "~2.1|~3.0",
            "symfony/css-selector": "~2.1|~3.0",
            "symfony/dom-crawler": "~2.1|~3.0"
        },
        "time": "2017-01-03T13:21:43+00:00",
        "type": "application",
        "extra": {
            "branch-alias": {
                "dev-master": "3.2-dev"
            }
        },
        "installation-source": "dist",
        "autoload": {
            "psr-4": {
                "Goutte\\": "Goutte"
            }
        },
        "notification-url": "https://packagist.org/downloads/",
        "license": [
            "MIT"
        ],
        "authors": [
            {
                "name": "Fabien Potencier",
                "email": "fabien@symfony.com"
            }
        ],
        "description": "A simple PHP Web Scraper",
        "homepage": "https://github.com/FriendsOfPHP/Goutte",
        "keywords": [
            "scraper"
        ]
    },
    {
        "name": "behat/mink",
        "version": "v1.7.1",
        "version_normalized": "1.7.1.0",
        "source": {
            "type": "git",
            "url": "https://github.com/minkphp/Mink.git",
            "reference": "e6930b9c74693dff7f4e58577e1b1743399f3ff9"
        },
        "dist": {
            "type": "zip",
            "url": "https://api.github.com/repos/minkphp/Mink/zipball/e6930b9c74693dff7f4e58577e1b1743399f3ff9",
            "reference": "e6930b9c74693dff7f4e58577e1b1743399f3ff9",
            "shasum": ""
        },
        "require": {
            "php": ">=5.3.1",
            "symfony/css-selector": "~2.1|~3.0"
        },
        "require-dev": {
            "symfony/phpunit-bridge": "~2.7|~3.0"
        },
        "suggest": {
            "behat/mink-browserkit-driver": "extremely fast headless driver for Symfony\\Kernel-based apps (Sf2, Silex)",
            "behat/mink-goutte-driver": "fast headless driver for any app without JS emulation",
            "behat/mink-selenium2-driver": "slow, but JS-enabled driver for any app (requires Selenium2)",
            "behat/mink-zombie-driver": "fast and JS-enabled headless driver for any app (requires node.js)"
        },
        "time": "2016-03-05T08:26:18+00:00",
        "type": "library",
        "extra": {
            "branch-alias": {
                "dev-master": "1.7.x-dev"
            }
        },
        "installation-source": "dist",
        "autoload": {
            "psr-4": {
                "Behat\\Mink\\": "src/"
            }
        },
        "notification-url": "https://packagist.org/downloads/",
        "license": [
            "MIT"
        ],
        "authors": [
            {
                "name": "Konstantin Kudryashov",
                "email": "ever.zet@gmail.com",
                "homepage": "http://everzet.com"
            }
        ],
        "description": "Browser controller/emulator abstraction for PHP",
        "homepage": "http://mink.behat.org/",
        "keywords": [
            "browser",
            "testing",
            "web"
        ]
    },
    {
        "name": "behat/mink-browserkit-driver",
        "version": "v1.3.2",
        "version_normalized": "1.3.2.0",
        "source": {
            "type": "git",
            "url": "https://github.com/minkphp/MinkBrowserKitDriver.git",
            "reference": "10e67fb4a295efcd62ea0bf16025a85ea19534fb"
        },
        "dist": {
            "type": "zip",
            "url": "https://api.github.com/repos/minkphp/MinkBrowserKitDriver/zipball/10e67fb4a295efcd62ea0bf16025a85ea19534fb",
            "reference": "10e67fb4a295efcd62ea0bf16025a85ea19534fb",
            "shasum": ""
        },
        "require": {
            "behat/mink": "^1.7.1@dev",
            "php": ">=5.3.6",
            "symfony/browser-kit": "~2.3|~3.0",
            "symfony/dom-crawler": "~2.3|~3.0"
        },
        "require-dev": {
            "silex/silex": "~1.2",
            "symfony/phpunit-bridge": "~2.7|~3.0"
        },
        "time": "2016-03-05T08:59:47+00:00",
        "type": "mink-driver",
        "extra": {
            "branch-alias": {
                "dev-master": "1.3.x-dev"
            }
        },
        "installation-source": "dist",
        "autoload": {
            "psr-4": {
                "Behat\\Mink\\Driver\\": "src/"
            }
        },
        "notification-url": "https://packagist.org/downloads/",
        "license": [
            "MIT"
        ],
        "authors": [
            {
                "name": "Konstantin Kudryashov",
                "email": "ever.zet@gmail.com",
                "homepage": "http://everzet.com"
            }
        ],
        "description": "Symfony2 BrowserKit driver for Mink framework",
        "homepage": "http://mink.behat.org/",
        "keywords": [
            "Mink",
            "Symfony2",
            "browser",
            "testing"
        ]
    },
    {
        "name": "behat/mink-goutte-driver",
        "version": "v1.2.1",
        "version_normalized": "1.2.1.0",
        "source": {
            "type": "git",
            "url": "https://github.com/minkphp/MinkGoutteDriver.git",
            "reference": "8b9ad6d2d95bc70b840d15323365f52fcdaea6ca"
        },
        "dist": {
            "type": "zip",
            "url": "https://api.github.com/repos/minkphp/MinkGoutteDriver/zipball/8b9ad6d2d95bc70b840d15323365f52fcdaea6ca",
            "reference": "8b9ad6d2d95bc70b840d15323365f52fcdaea6ca",
            "shasum": ""
        },
        "require": {
            "behat/mink": "~1.6@dev",
            "behat/mink-browserkit-driver": "~1.2@dev",
            "fabpot/goutte": "~1.0.4|~2.0|~3.1",
            "php": ">=5.3.1"
        },
        "require-dev": {
            "symfony/phpunit-bridge": "~2.7|~3.0"
        },
        "time": "2016-03-05T09:04:22+00:00",
        "type": "mink-driver",
        "extra": {
            "branch-alias": {
                "dev-master": "1.2.x-dev"
            }
        },
        "installation-source": "dist",
        "autoload": {
            "psr-4": {
                "Behat\\Mink\\Driver\\": "src/"
            }
        },
        "notification-url": "https://packagist.org/downloads/",
        "license": [
            "MIT"
        ],
        "authors": [
            {
                "name": "Konstantin Kudryashov",
                "email": "ever.zet@gmail.com",
                "homepage": "http://everzet.com"
            }
        ],
        "description": "Goutte driver for Mink framework",
        "homepage": "http://mink.behat.org/",
        "keywords": [
            "browser",
            "goutte",
            "headless",
            "testing"
        ]
    }
]
